{
  "type": "service_account",
  "project_id": "confiar-test",
  "private_key_id": "5cfa88e5ee821b4f96f0db17f5d3ba22dce41029",
  "private_key": "-----BEGIN PRIVATE KEY-----\nMIIEvQIBADANBgkqhkiG9w0BAQEFAASCBKcwggSjAgEAAoIBAQDF8tTGchIpYyPE\nyWtyIybFY7oPrVldIavyB5A0prbM5wfwJ4ixW5lasyqXVe7s4ZfDl1Hn9UPVFz0T\n+R2NXKTGhqWByeRfqPzWRhGzXbYi1jRt2tMctIMyH6Pp4cCDXzu0CDxlYK8xcSRG\n2metYbrg3fg0l3JeScGdqaone2jthkiiuHmncp2/cuP/FQ9JBvPQCkyFXdVm6cQ7\nic+Am/8/hVYu7Znutseo0IfSWbN5/HxVmHFpNYWQkPspPrrFy9L1u+Qx5qG1Z6rH\nqQQVircaOSrqcGGkDt594SisGShEekpliOSXMwczvvCy57/FYXm9Z0/RF7ZlkFaF\nb5Rfi4v/AgMBAAECggEACHnMLDkbLPl+lmusyu+AC/39VrQspOUPCJHUALp4uPpV\nfS4m12KdhOQyDoEn9gL3gsZPxAJc/AVUNgQ52eEzJFWvRYjrBeuQSUPTzd3VMYBW\n213+Icxa58JcvDl7NZoreMXM1ucWaU63vRmXTIsS5j5Vj+RCNJECQNQlzINSFrAm\nI18E7XBpamKlp7rJxQBkhXb3h0Na1Ofet+a14/lxOt4uBjjqmArFDFmOx1SWTcCR\n2Tu/5OQdW+FOrndSo0uKxX6MH5TqKkDnABvw7t2vBe6A1gDwCT7qFgBBJGSSuYG6\n+RF1t89lVDty+vjzU/em1B0qttxUHOhwhDMgjX/cYQKBgQDtAHRP3Hh5armxeCzm\na4Y5zpMeu/qxp+uUmAvKWrm5PEZUmk73COHQfJ5Y3L/Cq3kkJE1UgenjDMvSWxjD\n2VgmFYsf7/F5vF3nB3z7jpHJ160tqaYn82ULLBepJ8S4rdLfLYTPH4IfmfHvYLHe\n+yGmE4s+6cQvSYV//Ruwb7qnXwKBgQDV0PXgvRB5vREjGwUnpyGuNGrRcXwgmvhS\nLImzd5fvSabVRJ5RjpHjxp6caZBdXfcDEJBrSR8Abx9RLdC30FJ2XSiTaJ6WyKqH\nvK4mh0AnwbshKm3uA+XeXaF/Nu8WIerG76nRgjuO2uGt4qkaAzFDou0/aXlMZe6U\nXVTHlXZ/YQKBgQDK812m2bxM9QipIakJdEBQFkbDxeOK6KoC6CUIlqJ+LlBnuHAw\neWmuOFj87aRElsQ5H+EcoddgeB++NgZCCEfE7SPjKHzXa2faI/5yCIdtmgSRmrpP\ncc0wQQTN9OEv6KIwPXGCUJAEcbbM7zfCI7mP1yKhsFswxzvL+zoP382t7wKBgBKC\n9uawN77yeYtaiYW3WJkmfKEJfD+uaxViOcHJ9uOGsuT//dz9xO+9gHn2QcNzoTEo\nu/gt6ns1I7b5inp/lMQeqKaqhiBz2x/JXCKFzy4h/buPWtkiiUJJRPQoo2Z9JUB3\n+3HiHpntpWBSoWVZJWi/sF6vGQteP9ukgPSOoiXBAoGANWW8gKkxJziNDj+3N/o1\nfUuiO/Aa6JjcshTcojabEsU308EZ1rG7lkGVeuUO8MWDupf840selp7EArY0CvDT\nXGXKjBBePC/wzDICNm05OBU5lzDbim8ET0yaJX6uHYUI4vv8q5m1zHt5lPEEb18q\nhlBiviTj/HenwFeA1g9roLk=\n-----END PRIVATE KEY-----\n",
  "client_email": "firebase-adminsdk-jb5jd@confiar-test.iam.gserviceaccount.com",
  "client_id": "108028254618187465905",
  "auth_uri": "https://accounts.google.com/o/oauth2/auth",
  "token_uri": "https://oauth2.googleapis.com/token",
  "auth_provider_x509_cert_url": "https://www.googleapis.com/oauth2/v1/certs",
  "client_x509_cert_url": "https://www.googleapis.com/robot/v1/metadata/x509/firebase-adminsdk-jb5jd%40confiar-test.iam.gserviceaccount.com"
}
